^C:\USERS\BRUNO\SKYDRIVE\DOCUMENTOS\PROJETOS VISUALSTUDIO\ALPHAR\ALPHAR.RC
/l"0x0409" /nologo /fo"C:\USERS\BRUNO\SKYDRIVE\DOCUMENTOS\PROJETOS VISUALSTUDIO\ALPHAR\OUT\ALPHAR.RES" ALPHAR.RC /l"0x0409" /nologo /fo"C:\USERS\BRUNO\SKYDRIVE\DOCUMENTOS\PROJETOS VISUALSTUDIO\ALPHAR\OUT\ALPHAR.RES" C:\USERS\BRUNO\SKYDRIVE\DOCUMENTOS\PROJETOS VISUALSTUDIO\ALPHAR\ALPHAR.RC
^C:\USERS\BRUNO\SKYDRIVE\DOCUMENTOS\PROJETOS VISUALSTUDIO\ALPHAR\ALPHAR1.RC
/l"0x0409" /nologo /fo"C:\USERS\BRUNO\SKYDRIVE\DOCUMENTOS\PROJETOS VISUALSTUDIO\ALPHAR\OUT\ALPHAR1.RES" ALPHAR1.RC /l"0x0409" /nologo /fo"C:\USERS\BRUNO\SKYDRIVE\DOCUMENTOS\PROJETOS VISUALSTUDIO\ALPHAR\OUT\ALPHAR1.RES" C:\USERS\BRUNO\SKYDRIVE\DOCUMENTOS\PROJETOS VISUALSTUDIO\ALPHAR\ALPHAR1.RC
^C:\USERS\BRUNO MAGALHÃES\ONEDRIVE\DOCUMENTOS\PROJETOS VISUALSTUDIO\ALPHAR\ALPHAR1.RC
/l"0x0409" /nologo /fo"C:\USERS\BRUNO MAGALHÃES\ONEDRIVE\DOCUMENTOS\PROJETOS VISUALSTUDIO\ALPHAR\OUT\ALPHAR1.RES" ALPHAR1.RC /l"0x0409" /nologo /fo"C:\USERS\BRUNO MAGALHÃES\ONEDRIVE\DOCUMENTOS\PROJETOS VISUALSTUDIO\ALPHAR\OUT\ALPHAR1.RES" C:\USERS\BRUNO MAGALHÃES\ONEDRIVE\DOCUMENTOS\PROJETOS VISUALSTUDIO\ALPHAR\ALPHAR1.RC
^H:\ONEDRIVE\DOCUMENTOS\PROJETOS VISUALSTUDIO\ALPHAR\ALPHAR1.RC
/l"0x0409" /nologo /fo"H:\ONEDRIVE\DOCUMENTOS\PROJETOS VISUALSTUDIO\ALPHAR\OUT\ALPHAR1.RES"   H:\ONEDRIVE\DOCUMENTOS\PROJETOS VISUALSTUDIO\ALPHAR\ALPHAR1.RC
